VHDL/part3a.out
ncsim: 06.11-s008: (c) Copyright 1995-2007 Cadence Design Systems, Inc.
ncsim> run 510 ns
---PC--- --inst--  loadmem process input .abs file
00000000 8C010080 	lw   $1,w2($0)    -- Icache stall
00000004 8C020084 	lw   $2,w3($0)
00000008 00221820 	add  $3,$1,$2     -- pipeline stall
0000000C 00222022 	sub  $4,$1,$2
00000010 00012BC2 	sll  $5,$1,15     -- Icache stall
00000014 00023403 	srl  $6,$2,16
00000018 0003380B 	cmpl $7,$3
0000001C AC010088 	sw   $1,w4($0)
00000020 30A8007C 	addi $8,w1($5)    -- Icache stall
00000024 8C0F007C 	lw   $15,w1($0)
00000028 8C100080 	lw   $16,w2($0)  
0000002C 01F08820 	add  $17,$15,$16  -- $16 forwarded, stall 
00000030 02319020 	add  $18,$17,$17  -- $17 forwarded on both
00000034 6E320006 	beq  $17,$18,lab1 -- one stall, no br
00000038 8C09008C 	lw   $9,w5($0)
0000003C 0211980D 	or   $19,$16,$17
00000040 08000014 	j    lab1
00000044 8C010084 	lw   $1,w3($0)   -- branch slot, always
00000048 8C0C007C 	lw   $12,w1      -- not executed
0000004C 8C0D007C 	lw   $13,w1      -- not executed
00000050 6C410003 lab1:	beq  $2,$1,lab2  -- forward, does branch 
00000054 8C0B0080 	lw   $11,w2($0)  -- always execute
00000058 8C0D0080 	lw   $13,w2      -- not executed
0000005C 8C0E0080 	lw   $14,w2      -- not executed
00000060 8C0A0090 lab2:	lw   $10,w6($0)
00000064 00000000 	nop
00000068 00000000 	nop
0000006C 00000000 	nop
00000070 00000000 	nop
00000074 00000000 	nop
00000078 00000000 	nop
0000007C 11111111 w1:	word 0x11111111
00000080 22222222 w2:	word 0x22222222
00000084 33333333 w3:	word 0x33333333
00000088 44444444 w4:	word 0x44444444
0000008C 55555555 w5:	word 0x55555555
00000090 66666666 w6:	word 0x66666666
loadmem ends. memory loaded
clock 0  inst=8C010080  PC   =00000000 PCnext=00000004
ID  stage  IR=00000000                                                 rd=00000
EX  stage  IR=00000000  EX_A =00000000  EX_B =00000000  EX_C =00000000 rd=00000
EX  stage             EX_aluB=00000000 EX_res=00000000
MEM stage  IR=00000000  addr =00000000  data =00000000                 rd=00000
WB  stage  IR=00000000  read =00000000  pass =00000000 result=00000000 rd=00000
control RegDst=1  ALUSrc=0  MemtoReg=0  MEMRead=0  MEMWrite=0  WB_write_enb=0
reg 0-7 00000000 00000000 00000000 00000000 00000000 00000000 00000000 00000000 
   8-15 00000000 00000000 00000000 00000000 00000000 00000000 00000000 00000000 
  16-23 00000000 00000000 00000000 00000000 00000000 00000000 00000000 00000000 
RAM 70- 00000000 00000000 00000000 11111111 22222222 33333333 44444444 55555555 

clock 1  inst=8C010080  PC   =00000000 PCnext=00000004
ID  stage  IR=00000000                                                 rd=00000
EX  stage  IR=00000000  EX_A =00000000  EX_B =00000000  EX_C =00000000 rd=00000
EX  stage             EX_aluB=00000000 EX_res=00000000
MEM stage  IR=00000000  addr =00000000  data =00000000                 rd=00000
WB  stage  IR=00000000  read =00000000  pass =00000000 result=00000000 rd=00000
control RegDst=1  ALUSrc=0  MemtoReg=0  MEMRead=0  MEMWrite=0  WB_write_enb=0
reg 0-7 00000000 00000000 00000000 00000000 00000000 00000000 00000000 00000000 
   8-15 00000000 00000000 00000000 00000000 00000000 00000000 00000000 00000000 
  16-23 00000000 00000000 00000000 00000000 00000000 00000000 00000000 00000000 
RAM 70- 00000000 00000000 00000000 11111111 22222222 33333333 44444444 55555555 

clock 2  inst=8C010080  PC   =00000000 PCnext=00000004
ID  stage  IR=00000000                                                 rd=00000
EX  stage  IR=00000000  EX_A =00000000  EX_B =00000000  EX_C =00000000 rd=00000
EX  stage             EX_aluB=00000000 EX_res=00000000
MEM stage  IR=00000000  addr =00000000  data =00000000                 rd=00000
WB  stage  IR=00000000  read =00000000  pass =00000000 result=00000000 rd=00000
control RegDst=1  ALUSrc=0  MemtoReg=0  MEMRead=0  MEMWrite=0  WB_write_enb=0
reg 0-7 00000000 00000000 00000000 00000000 00000000 00000000 00000000 00000000 
   8-15 00000000 00000000 00000000 00000000 00000000 00000000 00000000 00000000 
  16-23 00000000 00000000 00000000 00000000 00000000 00000000 00000000 00000000 
RAM 70- 00000000 00000000 00000000 11111111 22222222 33333333 44444444 55555555 

clock 3  inst=8C010080  PC   =00000000 PCnext=00000004
ID  stage  IR=00000000                                                 rd=00000
EX  stage  IR=00000000  EX_A =00000000  EX_B =00000000  EX_C =00000000 rd=00000
EX  stage             EX_aluB=00000000 EX_res=00000000
MEM stage  IR=00000000  addr =00000000  data =00000000                 rd=00000
WB  stage  IR=00000000  read =00000000  pass =00000000 result=00000000 rd=00000
control RegDst=1  ALUSrc=0  MemtoReg=0  MEMRead=0  MEMWrite=0  WB_write_enb=0
reg 0-7 00000000 00000000 00000000 00000000 00000000 00000000 00000000 00000000 
   8-15 00000000 00000000 00000000 00000000 00000000 00000000 00000000 00000000 
  16-23 00000000 00000000 00000000 00000000 00000000 00000000 00000000 00000000 
RAM 70- 00000000 00000000 00000000 11111111 22222222 33333333 44444444 55555555 

clock 4  inst=8C020084  PC   =00000004 PCnext=00000008
ID  stage  IR=8C010080                                                 rd=00001
EX  stage  IR=00000000  EX_A =00000000  EX_B =00000000  EX_C =00000000 rd=00000
EX  stage             EX_aluB=00000000 EX_res=00000000
MEM stage  IR=00000000  addr =00000000  data =00000000                 rd=00000
WB  stage  IR=00000000  read =00000000  pass =00000000 result=00000000 rd=00000
control RegDst=0  ALUSrc=0  MemtoReg=0  MEMRead=0  MEMWrite=0  WB_write_enb=0
reg 0-7 00000000 00000000 00000000 00000000 00000000 00000000 00000000 00000000 
   8-15 00000000 00000000 00000000 00000000 00000000 00000000 00000000 00000000 
  16-23 00000000 00000000 00000000 00000000 00000000 00000000 00000000 00000000 
RAM 70- 00000000 00000000 00000000 11111111 22222222 33333333 44444444 55555555 

clock 5  inst=00221820  PC   =00000008 PCnext=0000000C
ID  stage  IR=8C020084                                                 rd=00010
EX  stage  IR=8C010080  EX_A =00000000  EX_B =00000000  EX_C =00000080 rd=00001
EX  stage             EX_aluB=00000080 EX_res=00000080
MEM stage  IR=00000000  addr =00000000  data =00000000                 rd=00000
WB  stage  IR=00000000  read =00000000  pass =00000000 result=00000000 rd=00000
control RegDst=0  ALUSrc=1  MemtoReg=0  MEMRead=0  MEMWrite=0  WB_write_enb=0
reg 0-7 00000000 00000000 00000000 00000000 00000000 00000000 00000000 00000000 
   8-15 00000000 00000000 00000000 00000000 00000000 00000000 00000000 00000000 
  16-23 00000000 00000000 00000000 00000000 00000000 00000000 00000000 00000000 
RAM 70- 00000000 00000000 00000000 11111111 22222222 33333333 44444444 55555555 

clock 6  inst=00222022  PC   =0000000C PCnext=00000010
ID  stage  IR=00221820                                                 rd=00000
EX  stage  IR=8C020084  EX_A =00000000  EX_B =00000000  EX_C =00000084 rd=00010
EX  stage             EX_aluB=00000084 EX_res=00000084
MEM stage  IR=8C010080  addr =00000080  data =00000000  read =22222222 rd=00001
WB  stage  IR=00000000  read =00000000  pass =00000000 result=00000000 rd=00000
control RegDst=1  ALUSrc=1  MemtoReg=0  MEMRead=1  MEMWrite=0  WB_write_enb=0
reg 0-7 00000000 00000000 00000000 00000000 00000000 00000000 00000000 00000000 
   8-15 00000000 00000000 00000000 00000000 00000000 00000000 00000000 00000000 
  16-23 00000000 00000000 00000000 00000000 00000000 00000000 00000000 00000000 
RAM 70- 00000000 00000000 00000000 11111111 22222222 33333333 44444444 55555555 

clock 7  inst=00222022  PC   =0000000C PCnext=00000010
ID  stage  IR=00221820  write=22222222  into =00000001                 rd=00011
EX  stage  IR=00000000  EX_A =00000000  EX_B =00000000  EX_C =00001820 rd=00000
EX  stage             EX_aluB=00000000 EX_res=00000000
MEM stage  IR=8C020084  addr =00000084  data =00000000  read =33333333 rd=00010
WB  stage  IR=8C010080  read =22222222  pass =00000080 result=22222222 rd=00001
control RegDst=1  ALUSrc=0  MemtoReg=1  MEMRead=1  MEMWrite=0  WB_write_enb=1
reg 0-7 00000000 22222222 00000000 00000000 00000000 00000000 00000000 00000000 
   8-15 00000000 00000000 00000000 00000000 00000000 00000000 00000000 00000000 
  16-23 00000000 00000000 00000000 00000000 00000000 00000000 00000000 00000000 
RAM 70- 00000000 00000000 00000000 11111111 22222222 33333333 44444444 55555555 

clock 8  inst=00012BC2  PC   =00000010 PCnext=00000014
ID  stage  IR=00222022  write=33333333  into =00000002                 rd=00000
EX  stage  IR=00221820  EX_A =22222222  EX_B =00000000  EX_C =00001820 rd=00011
EX  stage             EX_aluB=33333333 EX_res=55555555
MEM stage  IR=00000000  addr =00000000  data =00000000                 rd=00000
WB  stage  IR=8C020084  read =33333333  pass =00000084 result=33333333 rd=00010
control RegDst=1  ALUSrc=0  MemtoReg=1  MEMRead=0  MEMWrite=0  WB_write_enb=1
reg 0-7 00000000 22222222 33333333 00000000 00000000 00000000 00000000 00000000 
   8-15 00000000 00000000 00000000 00000000 00000000 00000000 00000000 00000000 
  16-23 00000000 00000000 00000000 00000000 00000000 00000000 00000000 00000000 
RAM 70- 00000000 00000000 00000000 11111111 22222222 33333333 44444444 55555555 

clock 9  inst=00012BC2  PC   =00000010 PCnext=00000014
ID  stage  IR=00222022                                                 rd=00000
EX  stage  IR=00000000  EX_A =22222222  EX_B =33333333  EX_C =00002022 rd=00000
EX  stage             EX_aluB=33333333 EX_res=55555555
MEM stage  IR=00221820  addr =55555555  data =33333333                 rd=00011
WB  stage  IR=00000000  read =00000000  pass =00000000 result=00000000 rd=00000
control RegDst=1  ALUSrc=0  MemtoReg=0  MEMRead=0  MEMWrite=0  WB_write_enb=0
reg 0-7 00000000 22222222 33333333 00000000 00000000 00000000 00000000 00000000 
   8-15 00000000 00000000 00000000 00000000 00000000 00000000 00000000 00000000 
  16-23 00000000 00000000 00000000 00000000 00000000 00000000 00000000 00000000 
RAM 70- 00000000 00000000 00000000 11111111 22222222 33333333 44444444 55555555 

clock 10  inst=00012BC2  PC   =00000010 PCnext=00000014
ID  stage  IR=00222022  write=55555555  into =00000003                 rd=00000
EX  stage  IR=00000000  EX_A =22222222  EX_B =33333333  EX_C =00002022 rd=00000
EX  stage             EX_aluB=33333333 EX_res=55555555
MEM stage  IR=00000000  addr =55555555  data =33333333                 rd=00000
WB  stage  IR=00221820  read =00000000  pass =55555555 result=55555555 rd=00011
control RegDst=1  ALUSrc=0  MemtoReg=0  MEMRead=0  MEMWrite=0  WB_write_enb=1
reg 0-7 00000000 22222222 33333333 55555555 00000000 00000000 00000000 00000000 
   8-15 00000000 00000000 00000000 00000000 00000000 00000000 00000000 00000000 
  16-23 00000000 00000000 00000000 00000000 00000000 00000000 00000000 00000000 
RAM 70- 00000000 00000000 00000000 11111111 22222222 33333333 44444444 55555555 

clock 11  inst=00012BC2  PC   =00000010 PCnext=00000014
ID  stage  IR=00222022                                                 rd=00100
EX  stage  IR=00000000  EX_A =22222222  EX_B =33333333  EX_C =00002022 rd=00000
EX  stage             EX_aluB=33333333 EX_res=55555555
MEM stage  IR=00000000  addr =55555555  data =33333333                 rd=00000
WB  stage  IR=00000000  read =00000000  pass =55555555 result=55555555 rd=00000
control RegDst=1  ALUSrc=0  MemtoReg=0  MEMRead=0  MEMWrite=0  WB_write_enb=0
reg 0-7 00000000 22222222 33333333 55555555 00000000 00000000 00000000 00000000 
   8-15 00000000 00000000 00000000 00000000 00000000 00000000 00000000 00000000 
  16-23 00000000 00000000 00000000 00000000 00000000 00000000 00000000 00000000 
RAM 70- 00000000 00000000 00000000 11111111 22222222 33333333 44444444 55555555 

clock 12  inst=00023403  PC   =00000014 PCnext=00000018
ID  stage  IR=00012BC2                                                 rd=00101
EX  stage  IR=00222022  EX_A =22222222  EX_B =33333333  EX_C =00002022 rd=00100
EX  stage             EX_aluB=33333333 EX_res=EEEEEEEF
MEM stage  IR=00000000  addr =55555555  data =33333333                 rd=00000
WB  stage  IR=00000000  read =00000000  pass =55555555 result=55555555 rd=00000
control RegDst=1  ALUSrc=0  MemtoReg=0  MEMRead=0  MEMWrite=0  WB_write_enb=0
reg 0-7 00000000 22222222 33333333 55555555 00000000 00000000 00000000 00000000 
   8-15 00000000 00000000 00000000 00000000 00000000 00000000 00000000 00000000 
  16-23 00000000 00000000 00000000 00000000 00000000 00000000 00000000 00000000 
RAM 70- 00000000 00000000 00000000 11111111 22222222 33333333 44444444 55555555 

clock 13  inst=0003380B  PC   =00000018 PCnext=0000001C
ID  stage  IR=00023403                                                 rd=00110
EX  stage  IR=00012BC2  EX_A =00000000  EX_B =22222222  EX_C =00002BC2 rd=00101
EX  stage             EX_aluB=22222222 EX_res=11110000
MEM stage  IR=00222022  addr =EEEEEEEF  data =33333333                 rd=00100
WB  stage  IR=00000000  read =00000000  pass =55555555 result=55555555 rd=00000
control RegDst=1  ALUSrc=0  MemtoReg=0  MEMRead=0  MEMWrite=0  WB_write_enb=0
reg 0-7 00000000 22222222 33333333 55555555 00000000 00000000 00000000 00000000 
   8-15 00000000 00000000 00000000 00000000 00000000 00000000 00000000 00000000 
  16-23 00000000 00000000 00000000 00000000 00000000 00000000 00000000 00000000 
RAM 70- 00000000 00000000 00000000 11111111 22222222 33333333 44444444 55555555 

clock 14  inst=AC010088  PC   =0000001C PCnext=00000020
ID  stage  IR=0003380B  write=EEEEEEEF  into =00000004                 rd=00111
EX  stage  IR=00023403  EX_A =00000000  EX_B =33333333  EX_C =00003403 rd=00110
EX  stage             EX_aluB=33333333 EX_res=00003333
MEM stage  IR=00012BC2  addr =11110000  data =22222222                 rd=00101
WB  stage  IR=00222022  read =00000000  pass =EEEEEEEF result=EEEEEEEF rd=00100
control RegDst=1  ALUSrc=0  MemtoReg=0  MEMRead=0  MEMWrite=0  WB_write_enb=1
reg 0-7 00000000 22222222 33333333 55555555 EEEEEEEF 00000000 00000000 00000000 
   8-15 00000000 00000000 00000000 00000000 00000000 00000000 00000000 00000000 
  16-23 00000000 00000000 00000000 00000000 00000000 00000000 00000000 00000000 
RAM 70- 00000000 00000000 00000000 11111111 22222222 33333333 44444444 55555555 

clock 15  inst=30A8007C  PC   =00000020 PCnext=00000024
ID  stage  IR=AC010088  write=11110000  into =00000005                 rd=00000
EX  stage  IR=0003380B  EX_A =00000000  EX_B =55555555  EX_C =0000380B rd=00111
EX  stage             EX_aluB=55555555 EX_res=AAAAAAAA
MEM stage  IR=00023403  addr =00003333  data =33333333                 rd=00110
WB  stage  IR=00012BC2  read =00000000  pass =11110000 result=11110000 rd=00101
control RegDst=0  ALUSrc=0  MemtoReg=0  MEMRead=0  MEMWrite=0  WB_write_enb=1
reg 0-7 00000000 22222222 33333333 55555555 EEEEEEEF 11110000 00000000 00000000 
   8-15 00000000 00000000 00000000 00000000 00000000 00000000 00000000 00000000 
  16-23 00000000 00000000 00000000 00000000 00000000 00000000 00000000 00000000 
RAM 70- 00000000 00000000 00000000 11111111 22222222 33333333 44444444 55555555 

clock 16  inst=30A8007C  PC   =00000020 PCnext=00000024
ID  stage  IR=AC010088  write=00003333  into =00000006                 rd=00000
EX  stage  IR=00000000  EX_A =00000000  EX_B =22222222  EX_C =00000088 rd=00000
EX  stage             EX_aluB=22222222 EX_res=22222222
MEM stage  IR=0003380B  addr =AAAAAAAA  data =55555555                 rd=00111
WB  stage  IR=00023403  read =00000000  pass =00003333 result=00003333 rd=00110
control RegDst=0  ALUSrc=0  MemtoReg=0  MEMRead=0  MEMWrite=0  WB_write_enb=1
reg 0-7 00000000 22222222 33333333 55555555 EEEEEEEF 11110000 00003333 00000000 
   8-15 00000000 00000000 00000000 00000000 00000000 00000000 00000000 00000000 
  16-23 00000000 00000000 00000000 00000000 00000000 00000000 00000000 00000000 
RAM 70- 00000000 00000000 00000000 11111111 22222222 33333333 44444444 55555555 

clock 17  inst=30A8007C  PC   =00000020 PCnext=00000024
ID  stage  IR=AC010088  write=AAAAAAAA  into =00000007                 rd=00000
EX  stage  IR=00000000  EX_A =00000000  EX_B =22222222  EX_C =00000088 rd=00000
EX  stage             EX_aluB=22222222 EX_res=22222222
MEM stage  IR=00000000  addr =22222222  data =22222222                 rd=00000
WB  stage  IR=0003380B  read =00000000  pass =AAAAAAAA result=AAAAAAAA rd=00111
control RegDst=0  ALUSrc=0  MemtoReg=0  MEMRead=0  MEMWrite=0  WB_write_enb=1
reg 0-7 00000000 22222222 33333333 55555555 EEEEEEEF 11110000 00003333 AAAAAAAA 
   8-15 00000000 00000000 00000000 00000000 00000000 00000000 00000000 00000000 
  16-23 00000000 00000000 00000000 00000000 00000000 00000000 00000000 00000000 
RAM 70- 00000000 00000000 00000000 11111111 22222222 33333333 44444444 55555555 

clock 18  inst=30A8007C  PC   =00000020 PCnext=00000024
ID  stage  IR=AC010088                                                 rd=00000
EX  stage  IR=00000000  EX_A =00000000  EX_B =22222222  EX_C =00000088 rd=00000
EX  stage             EX_aluB=22222222 EX_res=22222222
MEM stage  IR=00000000  addr =22222222  data =22222222                 rd=00000
WB  stage  IR=00000000  read =00000000  pass =22222222 result=22222222 rd=00000
control RegDst=0  ALUSrc=0  MemtoReg=0  MEMRead=0  MEMWrite=0  WB_write_enb=0
reg 0-7 00000000 22222222 33333333 55555555 EEEEEEEF 11110000 00003333 AAAAAAAA 
   8-15 00000000 00000000 00000000 00000000 00000000 00000000 00000000 00000000 
  16-23 00000000 00000000 00000000 00000000 00000000 00000000 00000000 00000000 
RAM 70- 00000000 00000000 00000000 11111111 22222222 33333333 44444444 55555555 

clock 19  inst=8C0F007C  PC   =00000024 PCnext=00000028
ID  stage  IR=30A8007C                                                 rd=01000
EX  stage  IR=AC010088  EX_A =00000000  EX_B =22222222  EX_C =00000088 rd=00000
EX  stage             EX_aluB=00000088 EX_res=00000088
MEM stage  IR=00000000  addr =22222222  data =22222222                 rd=00000
WB  stage  IR=00000000  read =00000000  pass =22222222 result=22222222 rd=00000
control RegDst=0  ALUSrc=1  MemtoReg=0  MEMRead=0  MEMWrite=0  WB_write_enb=0
reg 0-7 00000000 22222222 33333333 55555555 EEEEEEEF 11110000 00003333 AAAAAAAA 
   8-15 00000000 00000000 00000000 00000000 00000000 00000000 00000000 00000000 
  16-23 00000000 00000000 00000000 00000000 00000000 00000000 00000000 00000000 
RAM 70- 00000000 00000000 00000000 11111111 22222222 33333333 44444444 55555555 

clock 20  inst=8C100080  PC   =00000028 PCnext=0000002C
ID  stage  IR=8C0F007C                                                 rd=01111
EX  stage  IR=30A8007C  EX_A =11110000  EX_B =00000000  EX_C =0000007C rd=01000
EX  stage             EX_aluB=0000007C EX_res=1111007C
MEM stage  IR=AC010088  addr =00000088  data =22222222  wrote=22222222 rd=00000
WB  stage  IR=00000000  read =00000000  pass =22222222 result=22222222 rd=00000
control RegDst=0  ALUSrc=1  MemtoReg=0  MEMRead=0  MEMWrite=1  WB_write_enb=0
reg 0-7 00000000 22222222 33333333 55555555 EEEEEEEF 11110000 00003333 AAAAAAAA 
   8-15 00000000 00000000 00000000 00000000 00000000 00000000 00000000 00000000 
  16-23 00000000 00000000 00000000 00000000 00000000 00000000 00000000 00000000 
RAM 70- 00000000 00000000 00000000 11111111 22222222 33333333 22222222 55555555 

clock 21  inst=01F08820  PC   =0000002C PCnext=00000030
ID  stage  IR=8C100080                                                 rd=10000
EX  stage  IR=8C0F007C  EX_A =00000000  EX_B =00000000  EX_C =0000007C rd=01111
EX  stage             EX_aluB=0000007C EX_res=0000007C
MEM stage  IR=30A8007C  addr =1111007C  data =00000000                 rd=01000
WB  stage  IR=AC010088  read =22222222  pass =00000088 result=00000088 rd=00000
control RegDst=0  ALUSrc=1  MemtoReg=0  MEMRead=0  MEMWrite=0  WB_write_enb=0
reg 0-7 00000000 22222222 33333333 55555555 EEEEEEEF 11110000 00003333 AAAAAAAA 
   8-15 00000000 00000000 00000000 00000000 00000000 00000000 00000000 00000000 
  16-23 00000000 00000000 00000000 00000000 00000000 00000000 00000000 00000000 
RAM 70- 00000000 00000000 00000000 11111111 22222222 33333333 22222222 55555555 

clock 22  inst=02319020  PC   =00000030 PCnext=00000034
ID  stage  IR=01F08820  write=1111007C  into =00000008                 rd=00000
EX  stage  IR=8C100080  EX_A =00000000  EX_B =00000000  EX_C =00000080 rd=10000
EX  stage             EX_aluB=00000080 EX_res=00000080
MEM stage  IR=8C0F007C  addr =0000007C  data =00000000  read =11111111 rd=01111
WB  stage  IR=30A8007C  read =00000000  pass =1111007C result=1111007C rd=01000
control RegDst=1  ALUSrc=1  MemtoReg=0  MEMRead=1  MEMWrite=0  WB_write_enb=1
reg 0-7 00000000 22222222 33333333 55555555 EEEEEEEF 11110000 00003333 AAAAAAAA 
   8-15 1111007C 00000000 00000000 00000000 00000000 00000000 00000000 00000000 
  16-23 00000000 00000000 00000000 00000000 00000000 00000000 00000000 00000000 
RAM 70- 00000000 00000000 00000000 11111111 22222222 33333333 22222222 55555555 

clock 23  inst=02319020  PC   =00000030 PCnext=00000034
ID  stage  IR=01F08820  write=11111111  into =0000000F                 rd=00000
EX  stage  IR=00000000  EX_A =00000000  EX_B =00000000  EX_C =FFFF8820 rd=00000
EX  stage             EX_aluB=00000000 EX_res=00000000
MEM stage  IR=8C100080  addr =00000080  data =00000000  read =22222222 rd=10000
WB  stage  IR=8C0F007C  read =11111111  pass =0000007C result=11111111 rd=01111
control RegDst=1  ALUSrc=0  MemtoReg=1  MEMRead=1  MEMWrite=0  WB_write_enb=1
reg 0-7 00000000 22222222 33333333 55555555 EEEEEEEF 11110000 00003333 AAAAAAAA 
   8-15 1111007C 00000000 00000000 00000000 00000000 00000000 00000000 11111111 
  16-23 00000000 00000000 00000000 00000000 00000000 00000000 00000000 00000000 
RAM 70- 00000000 00000000 00000000 11111111 22222222 33333333 22222222 55555555 

clock 24  inst=02319020  PC   =00000030 PCnext=00000034
ID  stage  IR=01F08820  write=22222222  into =00000010                 rd=00000
EX  stage  IR=00000000  EX_A =11111111  EX_B =00000000  EX_C =FFFF8820 rd=00000
EX  stage             EX_aluB=00000000 EX_res=11111111
MEM stage  IR=00000000  addr =00000000  data =00000000                 rd=00000
WB  stage  IR=8C100080  read =22222222  pass =00000080 result=22222222 rd=10000
control RegDst=1  ALUSrc=0  MemtoReg=1  MEMRead=0  MEMWrite=0  WB_write_enb=1
reg 0-7 00000000 22222222 33333333 55555555 EEEEEEEF 11110000 00003333 AAAAAAAA 
   8-15 1111007C 00000000 00000000 00000000 00000000 00000000 00000000 11111111 
  16-23 22222222 00000000 00000000 00000000 00000000 00000000 00000000 00000000 
RAM 70- 00000000 00000000 00000000 11111111 22222222 33333333 22222222 55555555 

clock 25  inst=02319020  PC   =00000030 PCnext=00000034
ID  stage  IR=01F08820                                                 rd=10001
EX  stage  IR=00000000  EX_A =11111111  EX_B =22222222  EX_C =FFFF8820 rd=00000
EX  stage             EX_aluB=22222222 EX_res=33333333
MEM stage  IR=00000000  addr =11111111  data =00000000                 rd=00000
WB  stage  IR=00000000  read =00000000  pass =00000000 result=00000000 rd=00000
control RegDst=1  ALUSrc=0  MemtoReg=0  MEMRead=0  MEMWrite=0  WB_write_enb=0
reg 0-7 00000000 22222222 33333333 55555555 EEEEEEEF 11110000 00003333 AAAAAAAA 
   8-15 1111007C 00000000 00000000 00000000 00000000 00000000 00000000 11111111 
  16-23 22222222 00000000 00000000 00000000 00000000 00000000 00000000 00000000 
RAM 70- 00000000 00000000 00000000 11111111 22222222 33333333 22222222 55555555 

clock 26  inst=6E320006  PC   =00000034 PCnext=00000038
ID  stage  IR=02319020                                                 rd=10010
EX  stage  IR=01F08820  EX_A =11111111  EX_B =22222222  EX_C =FFFF8820 rd=10001
EX  stage             EX_aluB=22222222 EX_res=33333333
MEM stage  IR=00000000  addr =33333333  data =22222222                 rd=00000
WB  stage  IR=00000000  read =00000000  pass =11111111 result=11111111 rd=00000
control RegDst=1  ALUSrc=0  MemtoReg=0  MEMRead=0  MEMWrite=0  WB_write_enb=0
reg 0-7 00000000 22222222 33333333 55555555 EEEEEEEF 11110000 00003333 AAAAAAAA 
   8-15 1111007C 00000000 00000000 00000000 00000000 00000000 00000000 11111111 
  16-23 22222222 00000000 00000000 00000000 00000000 00000000 00000000 00000000 
RAM 70- 00000000 00000000 00000000 11111111 22222222 33333333 22222222 55555555 

clock 27  inst=8C09008C  PC   =00000038 PCnext=0000003C
ID  stage  IR=6E320006                                                 rd=00000
EX  stage  IR=02319020  EX_A =00000000  EX_B =00000000  EX_C =FFFF9020 rd=10010
EX  stage             EX_aluB=33333333 EX_res=66666666
MEM stage  IR=01F08820  addr =33333333  data =22222222                 rd=10001
WB  stage  IR=00000000  read =00000000  pass =33333333 result=33333333 rd=00000
control RegDst=0  ALUSrc=0  MemtoReg=0  MEMRead=0  MEMWrite=0  WB_write_enb=0
reg 0-7 00000000 22222222 33333333 55555555 EEEEEEEF 11110000 00003333 AAAAAAAA 
   8-15 1111007C 00000000 00000000 00000000 00000000 00000000 00000000 11111111 
  16-23 22222222 00000000 00000000 00000000 00000000 00000000 00000000 00000000 
RAM 70- 00000000 00000000 00000000 11111111 22222222 33333333 22222222 55555555 

clock 28  inst=8C09008C  PC   =00000038 PCnext=0000003C
ID  stage  IR=6E320006  write=33333333  into =00000011                 rd=00000
EX  stage  IR=00000000  EX_A =00000000  EX_B =00000000  EX_C =00000006 rd=00000
EX  stage             EX_aluB=00000000 EX_res=00000000
MEM stage  IR=02319020  addr =66666666  data =33333333                 rd=10010
WB  stage  IR=01F08820  read =00000000  pass =33333333 result=33333333 rd=10001
control RegDst=0  ALUSrc=0  MemtoReg=0  MEMRead=0  MEMWrite=0  WB_write_enb=1
reg 0-7 00000000 22222222 33333333 55555555 EEEEEEEF 11110000 00003333 AAAAAAAA 
   8-15 1111007C 00000000 00000000 00000000 00000000 00000000 00000000 11111111 
  16-23 22222222 33333333 00000000 00000000 00000000 00000000 00000000 00000000 
RAM 70- 00000000 00000000 00000000 11111111 22222222 33333333 22222222 55555555 

clock 29  inst=0211980D  PC   =0000003C PCnext=00000040
ID  stage  IR=8C09008C  write=66666666  into =00000012                 rd=01001
EX  stage  IR=6E320006  EX_A =33333333  EX_B =00000000  EX_C =00000006 rd=00000
EX  stage             EX_aluB=00000006 EX_res=33333339
MEM stage  IR=00000000  addr =00000000  data =00000000                 rd=00000
WB  stage  IR=02319020  read =00000000  pass =66666666 result=66666666 rd=10010
control RegDst=0  ALUSrc=1  MemtoReg=0  MEMRead=0  MEMWrite=0  WB_write_enb=1
reg 0-7 00000000 22222222 33333333 55555555 EEEEEEEF 11110000 00003333 AAAAAAAA 
   8-15 1111007C 00000000 00000000 00000000 00000000 00000000 00000000 11111111 
  16-23 22222222 33333333 66666666 00000000 00000000 00000000 00000000 00000000 
RAM 70- 00000000 00000000 00000000 11111111 22222222 33333333 22222222 55555555 

clock 30  inst=08000014  PC   =00000040 PCnext=00000044
ID  stage  IR=0211980D                                                 rd=00000
EX  stage  IR=8C09008C  EX_A =00000000  EX_B =00000000  EX_C =0000008C rd=01001
EX  stage             EX_aluB=0000008C EX_res=0000008C
MEM stage  IR=6E320006  addr =33333339  data =66666666                 rd=00000
WB  stage  IR=00000000  read =00000000  pass =00000000 result=00000000 rd=00000
control RegDst=1  ALUSrc=1  MemtoReg=0  MEMRead=0  MEMWrite=0  WB_write_enb=0
reg 0-7 00000000 22222222 33333333 55555555 EEEEEEEF 11110000 00003333 AAAAAAAA 
   8-15 1111007C 00000000 00000000 00000000 00000000 00000000 00000000 11111111 
  16-23 22222222 33333333 66666666 00000000 00000000 00000000 00000000 00000000 
RAM 70- 00000000 00000000 00000000 11111111 22222222 33333333 22222222 55555555 

clock 31  inst=08000014  PC   =00000040 PCnext=00000044
ID  stage  IR=0211980D                                                 rd=00000
EX  stage  IR=00000000  EX_A =22222222  EX_B =33333333  EX_C =FFFF980D rd=00000
EX  stage             EX_aluB=33333333 EX_res=55555555
MEM stage  IR=8C09008C  addr =0000008C  data =00000000  read =55555555 rd=01001
WB  stage  IR=6E320006  read =00000000  pass =33333339 result=33333339 rd=00000
control RegDst=1  ALUSrc=0  MemtoReg=0  MEMRead=1  MEMWrite=0  WB_write_enb=0
reg 0-7 00000000 22222222 33333333 55555555 EEEEEEEF 11110000 00003333 AAAAAAAA 
   8-15 1111007C 00000000 00000000 00000000 00000000 00000000 00000000 11111111 
  16-23 22222222 33333333 66666666 00000000 00000000 00000000 00000000 00000000 
RAM 70- 00000000 00000000 00000000 11111111 22222222 33333333 22222222 55555555 

clock 32  inst=08000014  PC   =00000040 PCnext=00000044
ID  stage  IR=0211980D  write=55555555  into =00000009                 rd=00000
EX  stage  IR=00000000  EX_A =22222222  EX_B =33333333  EX_C =FFFF980D rd=00000
EX  stage             EX_aluB=33333333 EX_res=55555555
MEM stage  IR=00000000  addr =55555555  data =33333333                 rd=00000
WB  stage  IR=8C09008C  read =55555555  pass =0000008C result=55555555 rd=01001
control RegDst=1  ALUSrc=0  MemtoReg=1  MEMRead=0  MEMWrite=0  WB_write_enb=1
reg 0-7 00000000 22222222 33333333 55555555 EEEEEEEF 11110000 00003333 AAAAAAAA 
   8-15 1111007C 55555555 00000000 00000000 00000000 00000000 00000000 11111111 
  16-23 22222222 33333333 66666666 00000000 00000000 00000000 00000000 00000000 
RAM 70- 00000000 00000000 00000000 11111111 22222222 33333333 22222222 55555555 

clock 33  inst=08000014  PC   =00000040 PCnext=00000044
ID  stage  IR=0211980D                                                 rd=10011
EX  stage  IR=00000000  EX_A =22222222  EX_B =33333333  EX_C =FFFF980D rd=00000
EX  stage             EX_aluB=33333333 EX_res=55555555
MEM stage  IR=00000000  addr =55555555  data =33333333                 rd=00000
WB  stage  IR=00000000  read =00000000  pass =55555555 result=55555555 rd=00000
