VHDL/pmul8_test.out
ncsim: 06.11-s008: (c) Copyright 1995-2007 Cadence Design Systems, Inc.
ncsim> run 4.608 ns
Driver starting.
a=00000000, b=00000000,  p=0000000000000000, cntr=00000000,  at=0.017 ns
a=00010001, b=00000000,  p=0000000000000000, cntr=00000001,  at=0.035 ns
a=00100010, b=00000000,  p=0000000000000000, cntr=00000010,  at=0.053 ns
a=00110011, b=00000000,  p=0000000000000000, cntr=00000011,  at=0.071 ns
a=01000100, b=00000000,  p=0000000000000000, cntr=00000100,  at=0.089 ns
a=01010101, b=00000000,  p=0000000000000000, cntr=00000101,  at=0.107 ns
a=01100110, b=00000000,  p=0000000000000000, cntr=00000110,  at=0.125 ns
a=01110111, b=00000000,  p=0000000000000000, cntr=00000111,  at=0.143 ns
a=10001000, b=00000000,  p=0000000000000000, cntr=00001000,  at=0.161 ns
a=10011001, b=00000000,  p=0000000000000000, cntr=00001001,  at=0.179 ns
a=10101010, b=00000000,  p=0000000000000000, cntr=00001010,  at=0.197 ns
a=10111011, b=00000000,  p=0000000000000000, cntr=00001011,  at=0.215 ns
a=11001100, b=00000000,  p=0000000000000000, cntr=00001100,  at=0.233 ns
a=11011101, b=00000000,  p=0000000000000000, cntr=00001101,  at=0.251 ns
a=11101110, b=00000000,  p=0000000000000000, cntr=00001110,  at=0.269 ns
a=11111111, b=00000000,  p=0000000000000000, cntr=00001111,  at=0.287 ns
a=00000000, b=00010001,  p=0000000000000000, cntr=00010000,  at=0.305 ns
a=00010001, b=00010001,  p=0000000100100001, cntr=00010001,  at=0.323 ns
a=00100010, b=00010001,  p=0000001001000010, cntr=00010010,  at=0.341 ns
a=00110011, b=00010001,  p=0000001101100011, cntr=00010011,  at=0.359 ns
a=01000100, b=00010001,  p=0000010010000100, cntr=00010100,  at=0.377 ns
a=01010101, b=00010001,  p=0000010110100101, cntr=00010101,  at=0.395 ns
a=01100110, b=00010001,  p=0000011011000110, cntr=00010110,  at=0.413 ns
a=01110111, b=00010001,  p=0000011111100111, cntr=00010111,  at=0.431 ns
a=10001000, b=00010001,  p=0000100100001000, cntr=00011000,  at=0.449 ns
a=10011001, b=00010001,  p=0000101000101001, cntr=00011001,  at=0.467 ns
a=10101010, b=00010001,  p=0000101101001010, cntr=00011010,  at=0.485 ns
a=10111011, b=00010001,  p=0000110001101011, cntr=00011011,  at=0.503 ns
a=11001100, b=00010001,  p=0000110110001100, cntr=00011100,  at=0.521 ns
a=11011101, b=00010001,  p=0000111010101101, cntr=00011101,  at=0.539 ns
a=11101110, b=00010001,  p=0000111111001110, cntr=00011110,  at=0.557 ns
a=11111111, b=00010001,  p=0001000011101111, cntr=00011111,  at=0.575 ns
a=00000000, b=00100010,  p=0000000000000000, cntr=00100000,  at=0.593 ns
a=00010001, b=00100010,  p=0000001001000010, cntr=00100001,  at=0.611 ns
a=00100010, b=00100010,  p=0000010010000100, cntr=00100010,  at=0.629 ns
a=00110011, b=00100010,  p=0000011011000110, cntr=00100011,  at=0.647 ns
a=01000100, b=00100010,  p=0000100100001000, cntr=00100100,  at=0.665 ns
a=01010101, b=00100010,  p=0000101101001010, cntr=00100101,  at=0.683 ns
a=01100110, b=00100010,  p=0000110110001100, cntr=00100110,  at=0.701 ns
a=01110111, b=00100010,  p=0000111111001110, cntr=00100111,  at=0.719 ns
a=10001000, b=00100010,  p=0001001000010000, cntr=00101000,  at=0.737 ns
a=10011001, b=00100010,  p=0001010001010010, cntr=00101001,  at=0.755 ns
a=10101010, b=00100010,  p=0001011010010100, cntr=00101010,  at=0.773 ns
a=10111011, b=00100010,  p=0001100011010110, cntr=00101011,  at=0.791 ns
a=11001100, b=00100010,  p=0001101100011000, cntr=00101100,  at=0.809 ns
a=11011101, b=00100010,  p=0001110101011010, cntr=00101101,  at=0.827 ns
a=11101110, b=00100010,  p=0001111110011100, cntr=00101110,  at=0.845 ns
a=11111111, b=00100010,  p=0010000111011110, cntr=00101111,  at=0.863 ns
a=00000000, b=00110011,  p=0000000000000000, cntr=00110000,  at=0.881 ns
a=00010001, b=00110011,  p=0000001101100011, cntr=00110001,  at=0.899 ns
a=00100010, b=00110011,  p=0000011011000110, cntr=00110010,  at=0.917 ns
a=00110011, b=00110011,  p=0000101000101001, cntr=00110011,  at=0.935 ns
a=01000100, b=00110011,  p=0000110110001100, cntr=00110100,  at=0.953 ns
a=01010101, b=00110011,  p=0001000011101111, cntr=00110101,  at=0.971 ns
a=01100110, b=00110011,  p=0001010001010010, cntr=00110110,  at=0.989 ns
a=01110111, b=00110011,  p=0001011110110101, cntr=00110111,  at=1.007 ns
a=10001000, b=00110011,  p=0001101100011000, cntr=00111000,  at=1.025 ns
a=10011001, b=00110011,  p=0001111001111011, cntr=00111001,  at=1.043 ns
a=10101010, b=00110011,  p=0010000111011110, cntr=00111010,  at=1.061 ns
a=10111011, b=00110011,  p=0010010101000001, cntr=00111011,  at=1.079 ns
a=11001100, b=00110011,  p=0010100010100100, cntr=00111100,  at=1.097 ns
a=11011101, b=00110011,  p=0010110000000111, cntr=00111101,  at=1.115 ns
a=11101110, b=00110011,  p=0010111101101010, cntr=00111110,  at=1.133 ns
a=11111111, b=00110011,  p=0011001011001101, cntr=00111111,  at=1.151 ns
a=00000000, b=01000100,  p=0000000000000000, cntr=01000000,  at=1.169 ns
a=00010001, b=01000100,  p=0000010010000100, cntr=01000001,  at=1.187 ns
a=00100010, b=01000100,  p=0000100100001000, cntr=01000010,  at=1.205 ns
a=00110011, b=01000100,  p=0000110110001100, cntr=01000011,  at=1.223 ns
a=01000100, b=01000100,  p=0001001000010000, cntr=01000100,  at=1.241 ns
a=01010101, b=01000100,  p=0001011010010100, cntr=01000101,  at=1.259 ns
a=01100110, b=01000100,  p=0001101100011000, cntr=01000110,  at=1.277 ns
a=01110111, b=01000100,  p=0001111110011100, cntr=01000111,  at=1.295 ns
a=10001000, b=01000100,  p=0010010000100000, cntr=01001000,  at=1.313 ns
a=10011001, b=01000100,  p=0010100010100100, cntr=01001001,  at=1.331 ns
a=10101010, b=01000100,  p=0010110100101000, cntr=01001010,  at=1.349 ns
a=10111011, b=01000100,  p=0011000110101100, cntr=01001011,  at=1.367 ns
a=11001100, b=01000100,  p=0011011000110000, cntr=01001100,  at=1.385 ns
a=11011101, b=01000100,  p=0011101010110100, cntr=01001101,  at=1.403 ns
a=11101110, b=01000100,  p=0011111100111000, cntr=01001110,  at=1.421 ns
a=11111111, b=01000100,  p=0100001110111100, cntr=01001111,  at=1.439 ns
a=00000000, b=01010101,  p=0000000000000000, cntr=01010000,  at=1.457 ns
a=00010001, b=01010101,  p=0000010110100101, cntr=01010001,  at=1.475 ns
a=00100010, b=01010101,  p=0000101101001010, cntr=01010010,  at=1.493 ns
a=00110011, b=01010101,  p=0001000011101111, cntr=01010011,  at=1.511 ns
a=01000100, b=01010101,  p=0001011010010100, cntr=01010100,  at=1.529 ns
a=01010101, b=01010101,  p=0001110000111001, cntr=01010101,  at=1.547 ns
a=01100110, b=01010101,  p=0010000111011110, cntr=01010110,  at=1.565 ns
a=01110111, b=01010101,  p=0010011110000011, cntr=01010111,  at=1.583 ns
a=10001000, b=01010101,  p=0010110100101000, cntr=01011000,  at=1.601 ns
a=10011001, b=01010101,  p=0011001011001101, cntr=01011001,  at=1.619 ns
a=10101010, b=01010101,  p=0011100001110010, cntr=01011010,  at=1.637 ns
a=10111011, b=01010101,  p=0011111000010111, cntr=01011011,  at=1.655 ns
a=11001100, b=01010101,  p=0100001110111100, cntr=01011100,  at=1.673 ns
a=11011101, b=01010101,  p=0100100101100001, cntr=01011101,  at=1.691 ns
a=11101110, b=01010101,  p=0100111100000110, cntr=01011110,  at=1.709 ns
a=11111111, b=01010101,  p=0101010010101011, cntr=01011111,  at=1.727 ns
a=00000000, b=01100110,  p=0000000000000000, cntr=01100000,  at=1.745 ns
a=00010001, b=01100110,  p=0000011011000110, cntr=01100001,  at=1.763 ns
a=00100010, b=01100110,  p=0000110110001100, cntr=01100010,  at=1.781 ns
a=00110011, b=01100110,  p=0001010001010010, cntr=01100011,  at=1.799 ns
a=01000100, b=01100110,  p=0001101100011000, cntr=01100100,  at=1.817 ns
a=01010101, b=01100110,  p=0010000111011110, cntr=01100101,  at=1.835 ns
a=01100110, b=01100110,  p=0010100010100100, cntr=01100110,  at=1.853 ns
a=01110111, b=01100110,  p=0010111101101010, cntr=01100111,  at=1.871 ns
a=10001000, b=01100110,  p=0011011000110000, cntr=01101000,  at=1.889 ns
a=10011001, b=01100110,  p=0011110011110110, cntr=01101001,  at=1.907 ns
a=10101010, b=01100110,  p=0100001110111100, cntr=01101010,  at=1.925 ns
a=10111011, b=01100110,  p=0100101010000010, cntr=01101011,  at=1.943 ns
a=11001100, b=01100110,  p=0101000101001000, cntr=01101100,  at=1.961 ns
a=11011101, b=01100110,  p=0101100000001110, cntr=01101101,  at=1.979 ns
a=11101110, b=01100110,  p=0101111011010100, cntr=01101110,  at=1.997 ns
a=11111111, b=01100110,  p=0110010110011010, cntr=01101111,  at=2.015 ns
a=00000000, b=01110111,  p=0000000000000000, cntr=01110000,  at=2.033 ns
a=00010001, b=01110111,  p=0000011111100111, cntr=01110001,  at=2.051 ns
a=00100010, b=01110111,  p=0000111111001110, cntr=01110010,  at=2.069 ns
a=00110011, b=01110111,  p=0001011110110101, cntr=01110011,  at=2.087 ns
a=01000100, b=01110111,  p=0001111110011100, cntr=01110100,  at=2.105 ns
a=01010101, b=01110111,  p=0010011110000011, cntr=01110101,  at=2.123 ns
a=01100110, b=01110111,  p=0010111101101010, cntr=01110110,  at=2.141 ns
a=01110111, b=01110111,  p=0011011101010001, cntr=01110111,  at=2.159 ns
a=10001000, b=01110111,  p=0011111100111000, cntr=01111000,  at=2.177 ns
a=10011001, b=01110111,  p=0100011100011111, cntr=01111001,  at=2.195 ns
a=10101010, b=01110111,  p=0100111100000110, cntr=01111010,  at=2.213 ns
a=10111011, b=01110111,  p=0101011011101101, cntr=01111011,  at=2.231 ns
a=11001100, b=01110111,  p=0101111011010100, cntr=01111100,  at=2.249 ns
a=11011101, b=01110111,  p=0110011010111011, cntr=01111101,  at=2.267 ns
a=11101110, b=01110111,  p=0110111010100010, cntr=01111110,  at=2.285 ns
a=11111111, b=01110111,  p=0111011010001001, cntr=01111111,  at=2.303 ns
a=00000000, b=10001000,  p=0000000000000000, cntr=10000000,  at=2.321 ns
a=00010001, b=10001000,  p=0000100100001000, cntr=10000001,  at=2.339 ns
a=00100010, b=10001000,  p=0001001000010000, cntr=10000010,  at=2.357 ns
a=00110011, b=10001000,  p=0001101100011000, cntr=10000011,  at=2.375 ns
a=01000100, b=10001000,  p=0010010000100000, cntr=10000100,  at=2.393 ns
a=01010101, b=10001000,  p=0010110100101000, cntr=10000101,  at=2.411 ns
a=01100110, b=10001000,  p=0011011000110000, cntr=10000110,  at=2.429 ns
a=01110111, b=10001000,  p=0011111100111000, cntr=10000111,  at=2.447 ns
a=10001000, b=10001000,  p=0100100001000000, cntr=10001000,  at=2.465 ns
a=10011001, b=10001000,  p=0101000101001000, cntr=10001001,  at=2.483 ns
a=10101010, b=10001000,  p=0101101001010000, cntr=10001010,  at=2.501 ns
a=10111011, b=10001000,  p=0110001101011000, cntr=10001011,  at=2.519 ns
a=11001100, b=10001000,  p=0110110001100000, cntr=10001100,  at=2.537 ns
a=11011101, b=10001000,  p=0111010101101000, cntr=10001101,  at=2.555 ns
a=11101110, b=10001000,  p=0111111001110000, cntr=10001110,  at=2.573 ns
a=11111111, b=10001000,  p=1000011101111000, cntr=10001111,  at=2.591 ns
a=00000000, b=10011001,  p=0000000000000000, cntr=10010000,  at=2.609 ns
a=00010001, b=10011001,  p=0000101000101001, cntr=10010001,  at=2.627 ns
a=00100010, b=10011001,  p=0001010001010010, cntr=10010010,  at=2.645 ns
a=00110011, b=10011001,  p=0001111001111011, cntr=10010011,  at=2.663 ns
a=01000100, b=10011001,  p=0010100010100100, cntr=10010100,  at=2.681 ns
a=01010101, b=10011001,  p=0011001011001101, cntr=10010101,  at=2.699 ns
a=01100110, b=10011001,  p=0011110011110110, cntr=10010110,  at=2.717 ns
a=01110111, b=10011001,  p=0100011100011111, cntr=10010111,  at=2.735 ns
a=10001000, b=10011001,  p=0101000101001000, cntr=10011000,  at=2.753 ns
a=10011001, b=10011001,  p=0101101101110001, cntr=10011001,  at=2.771 ns
a=10101010, b=10011001,  p=0110010110011010, cntr=10011010,  at=2.789 ns
a=10111011, b=10011001,  p=0110111111000011, cntr=10011011,  at=2.807 ns
a=11001100, b=10011001,  p=0111100111101100, cntr=10011100,  at=2.825 ns
a=11011101, b=10011001,  p=1000010000010101, cntr=10011101,  at=2.843 ns
a=11101110, b=10011001,  p=1000111000111110, cntr=10011110,  at=2.861 ns
a=11111111, b=10011001,  p=1001100001100111, cntr=10011111,  at=2.879 ns
a=00000000, b=10101010,  p=0000000000000000, cntr=10100000,  at=2.897 ns
a=00010001, b=10101010,  p=0000101101001010, cntr=10100001,  at=2.915 ns
a=00100010, b=10101010,  p=0001011010010100, cntr=10100010,  at=2.933 ns
a=00110011, b=10101010,  p=0010000111011110, cntr=10100011,  at=2.951 ns
a=01000100, b=10101010,  p=0010110100101000, cntr=10100100,  at=2.969 ns
a=01010101, b=10101010,  p=0011100001110010, cntr=10100101,  at=2.987 ns
a=01100110, b=10101010,  p=0100001110111100, cntr=10100110,  at=3.005 ns
a=01110111, b=10101010,  p=0100111100000110, cntr=10100111,  at=3.023 ns
a=10001000, b=10101010,  p=0101101001010000, cntr=10101000,  at=3.041 ns
a=10011001, b=10101010,  p=0110010110011010, cntr=10101001,  at=3.059 ns
a=10101010, b=10101010,  p=0111000011100100, cntr=10101010,  at=3.077 ns
a=10111011, b=10101010,  p=0111110000101110, cntr=10101011,  at=3.095 ns
a=11001100, b=10101010,  p=1000011101111000, cntr=10101100,  at=3.113 ns
a=11011101, b=10101010,  p=1001001011000010, cntr=10101101,  at=3.131 ns
a=11101110, b=10101010,  p=1001111000001100, cntr=10101110,  at=3.149 ns
a=11111111, b=10101010,  p=1010100101010110, cntr=10101111,  at=3.167 ns
a=00000000, b=10111011,  p=0000000000000000, cntr=10110000,  at=3.185 ns
a=00010001, b=10111011,  p=0000110001101011, cntr=10110001,  at=3.203 ns
a=00100010, b=10111011,  p=0001100011010110, cntr=10110010,  at=3.221 ns
a=00110011, b=10111011,  p=0010010101000001, cntr=10110011,  at=3.239 ns
a=01000100, b=10111011,  p=0011000110101100, cntr=10110100,  at=3.257 ns
a=01010101, b=10111011,  p=0011111000010111, cntr=10110101,  at=3.275 ns
a=01100110, b=10111011,  p=0100101010000010, cntr=10110110,  at=3.293 ns
a=01110111, b=10111011,  p=0101011011101101, cntr=10110111,  at=3.311 ns
a=10001000, b=10111011,  p=0110001101011000, cntr=10111000,  at=3.329 ns
a=10011001, b=10111011,  p=0110111111000011, cntr=10111001,  at=3.347 ns
a=10101010, b=10111011,  p=0111110000101110, cntr=10111010,  at=3.365 ns
a=10111011, b=10111011,  p=1000100010011001, cntr=10111011,  at=3.383 ns
a=11001100, b=10111011,  p=1001010100000100, cntr=10111100,  at=3.401 ns
a=11011101, b=10111011,  p=1010000101101111, cntr=10111101,  at=3.419 ns
a=11101110, b=10111011,  p=1010110111011010, cntr=10111110,  at=3.437 ns
a=11111111, b=10111011,  p=1011101001000101, cntr=10111111,  at=3.455 ns
a=00000000, b=11001100,  p=0000000000000000, cntr=11000000,  at=3.473 ns
a=00010001, b=11001100,  p=0000110110001100, cntr=11000001,  at=3.491 ns
a=00100010, b=11001100,  p=0001101100011000, cntr=11000010,  at=3.509 ns
a=00110011, b=11001100,  p=0010100010100100, cntr=11000011,  at=3.527 ns
a=01000100, b=11001100,  p=0011011000110000, cntr=11000100,  at=3.545 ns
a=01010101, b=11001100,  p=0100001110111100, cntr=11000101,  at=3.563 ns
a=01100110, b=11001100,  p=0101000101001000, cntr=11000110,  at=3.581 ns
a=01110111, b=11001100,  p=0101111011010100, cntr=11000111,  at=3.599 ns
a=10001000, b=11001100,  p=0110110001100000, cntr=11001000,  at=3.617 ns
a=10011001, b=11001100,  p=0111100111101100, cntr=11001001,  at=3.635 ns
a=10101010, b=11001100,  p=1000011101111000, cntr=11001010,  at=3.653 ns
a=10111011, b=11001100,  p=1001010100000100, cntr=11001011,  at=3.671 ns
a=11001100, b=11001100,  p=1010001010010000, cntr=11001100,  at=3.689 ns
a=11011101, b=11001100,  p=1011000000011100, cntr=11001101,  at=3.707 ns
a=11101110, b=11001100,  p=1011110110101000, cntr=11001110,  at=3.725 ns
a=11111111, b=11001100,  p=1100101100110100, cntr=11001111,  at=3.743 ns
a=00000000, b=11011101,  p=0000000000000000, cntr=11010000,  at=3.761 ns
a=00010001, b=11011101,  p=0000111010101101, cntr=11010001,  at=3.779 ns
a=00100010, b=11011101,  p=0001110101011010, cntr=11010010,  at=3.797 ns
a=00110011, b=11011101,  p=0010110000000111, cntr=11010011,  at=3.815 ns
a=01000100, b=11011101,  p=0011101010110100, cntr=11010100,  at=3.833 ns
a=01010101, b=11011101,  p=0100100101100001, cntr=11010101,  at=3.851 ns
a=01100110, b=11011101,  p=0101100000001110, cntr=11010110,  at=3.869 ns
a=01110111, b=11011101,  p=0110011010111011, cntr=11010111,  at=3.887 ns
a=10001000, b=11011101,  p=0111010101101000, cntr=11011000,  at=3.905 ns
a=10011001, b=11011101,  p=1000010000010101, cntr=11011001,  at=3.923 ns
a=10101010, b=11011101,  p=1001001011000010, cntr=11011010,  at=3.941 ns
a=10111011, b=11011101,  p=1010000101101111, cntr=11011011,  at=3.959 ns
a=11001100, b=11011101,  p=1011000000011100, cntr=11011100,  at=3.977 ns
a=11011101, b=11011101,  p=1011111011001001, cntr=11011101,  at=3.995 ns
a=11101110, b=11011101,  p=1100110101110110, cntr=11011110,  at=4.013 ns
a=11111111, b=11011101,  p=1101110000100011, cntr=11011111,  at=4.031 ns
a=00000000, b=11101110,  p=0000000000000000, cntr=11100000,  at=4.049 ns
a=00010001, b=11101110,  p=0000111111001110, cntr=11100001,  at=4.067 ns
a=00100010, b=11101110,  p=0001111110011100, cntr=11100010,  at=4.085 ns
a=00110011, b=11101110,  p=0010111101101010, cntr=11100011,  at=4.103 ns
a=01000100, b=11101110,  p=0011111100111000, cntr=11100100,  at=4.121 ns
a=01010101, b=11101110,  p=0100111100000110, cntr=11100101,  at=4.139 ns
a=01100110, b=11101110,  p=0101111011010100, cntr=11100110,  at=4.157 ns
a=01110111, b=11101110,  p=0110111010100010, cntr=11100111,  at=4.175 ns
a=10001000, b=11101110,  p=0111111001110000, cntr=11101000,  at=4.193 ns
a=10011001, b=11101110,  p=1000111000111110, cntr=11101001,  at=4.211 ns
a=10101010, b=11101110,  p=1001111000001100, cntr=11101010,  at=4.229 ns
a=10111011, b=11101110,  p=1010110111011010, cntr=11101011,  at=4.247 ns
a=11001100, b=11101110,  p=1011110110101000, cntr=11101100,  at=4.265 ns
a=11011101, b=11101110,  p=1100110101110110, cntr=11101101,  at=4.283 ns
a=11101110, b=11101110,  p=1101110101000100, cntr=11101110,  at=4.301 ns
a=11111111, b=11101110,  p=1110110100010010, cntr=11101111,  at=4.319 ns
a=00000000, b=11111111,  p=0000000000000000, cntr=11110000,  at=4.337 ns
a=00010001, b=11111111,  p=0001000011101111, cntr=11110001,  at=4.355 ns
a=00100010, b=11111111,  p=0010000111011110, cntr=11110010,  at=4.373 ns
a=00110011, b=11111111,  p=0011001011001101, cntr=11110011,  at=4.391 ns
a=01000100, b=11111111,  p=0100001110111100, cntr=11110100,  at=4.409 ns
a=01010101, b=11111111,  p=0101010010101011, cntr=11110101,  at=4.427 ns
a=01100110, b=11111111,  p=0110010110011010, cntr=11110110,  at=4.445 ns
a=01110111, b=11111111,  p=0111011010001001, cntr=11110111,  at=4.463 ns
a=10001000, b=11111111,  p=1000011101111000, cntr=11111000,  at=4.481 ns
a=10011001, b=11111111,  p=1001100001100111, cntr=11111001,  at=4.499 ns
a=10101010, b=11111111,  p=1010100101010110, cntr=11111010,  at=4.517 ns
a=10111011, b=11111111,  p=1011101001000101, cntr=11111011,  at=4.535 ns
a=11001100, b=11111111,  p=1100101100110100, cntr=11111100,  at=4.553 ns
a=11011101, b=11111111,  p=1101110000100011, cntr=11111101,  at=4.571 ns
a=11101110, b=11111111,  p=1110110100010010, cntr=11111110,  at=4.589 ns
a=11111111, b=11111111,  p=1111111000000001, cntr=11111111,  at=4.607 ns
Ran until 4608 PS + 0
ncsim> exit
